<?xml version="1.0" encoding="UTF-8" standalone="no"?>
<!-- Created with Inkscape (http://www.inkscape.org/) -->

<svg xmlns:dc="http://purl.org/dc/elements/1.1/" xmlns:cc="http://creativecommons.org/ns#" xmlns:rdf="http://www.w3.org/1999/02/22-rdf-syntax-ns#" xmlns:svg="http://www.w3.org/2000/svg" xmlns="http://www.w3.org/2000/svg" xmlns:sodipodi="http://sodipodi.sourceforge.net/DTD/sodipodi-0.dtd" xmlns:inkscape="http://www.inkscape.org/namespaces/inkscape" id="SVGRoot" version="1.1" inkscape:version="0.92+devel trunk-69-gf61892a23 2017-07-04 custom" width="16px" height="16px" viewBox="0 0 16 16" sodipodi:docname="connector-new-connpoint-symbolic.svg">
  <sodipodi:namedview id="base" pagecolor="#ffffff" bordercolor="#666666" borderopacity="1.0" inkscape:pageopacity="0.0" inkscape:pageshadow="2" inkscape:zoom="16.0" inkscape:cx="8.0" inkscape:cy="8.0" inkscape:document-units="px" inkscape:current-layer="connector-new-connpoint" inkscape:document-rotation="0" showgrid="false" inkscape:grid-bbox="true" />
  <defs id="defs4493" />
  <metadata id="metadata4496">
    <rdf:RDF>
      <cc:Work rdf:about="">
        <dc:format>image/svg+xml</dc:format>
        <dc:type rdf:resource="http://purl.org/dc/dcmitype/StillImage" />
        <dc:title></dc:title>
      </cc:Work>
    </rdf:RDF>
  </metadata>
  <g inkscape:label="Layer 1" id="layer1" inkscape:groupmode="layer">
    <g id="connector-new-connpoint">
      <title id="title9678">connector-new-connpoint</title>
      <rect id="rect16218" style="stroke:none" width="14" height="1" x="1" y="14" />
      <rect id="rect16220" style="stroke:none" width="1" height="14" x="14" y="1" />
      <path id="path16222" style="stroke:none" d="m 13.6875,1.0000174 c -2.0954,0.0484 -4.2102,0.6026 -6.1563,1.7187 L 7.5,2.7500174 c -4.4739,2.583 -6.8048,7.4211996 -6.4375,12.2499996 h 1 C 1.6944,10.523917 3.8498,6.0211174 8,3.6250174 l 0.0312,-0.0313 c 1.7963,-1.0302 3.7534,-1.549 5.6875,-1.5937 0.4295,-0.01 0.8555,-0.005 1.2813,0.0312 v -1 c -0.4343,-0.0337 -0.875,-0.0413 -1.3125,-0.0312 z" inkscape:connector-curvature="0" />
      <rect id="rect16242" style="stroke:none" width="4" height="4" x="3" y="3" />
    </g>
  </g>
</svg>
