<?xml version="1.0" encoding="UTF-8" standalone="no"?>
<!-- Created with Inkscape (http://www.inkscape.org/) -->

<svg xmlns:dc="http://purl.org/dc/elements/1.1/" xmlns:cc="http://creativecommons.org/ns#" xmlns:rdf="http://www.w3.org/1999/02/22-rdf-syntax-ns#" xmlns:svg="http://www.w3.org/2000/svg" xmlns="http://www.w3.org/2000/svg" xmlns:sodipodi="http://sodipodi.sourceforge.net/DTD/sodipodi-0.dtd" xmlns:inkscape="http://www.inkscape.org/namespaces/inkscape" id="SVGRoot" version="1.1" inkscape:version="0.92+devel trunk-69-gf61892a23 2017-07-04 custom" width="16px" height="16px" viewBox="0 0 16 16" sodipodi:docname="dialog-swatches-symbolic.svg">
  <sodipodi:namedview id="base" pagecolor="#ffffff" bordercolor="#666666" borderopacity="1.0" inkscape:pageopacity="0.0" inkscape:pageshadow="2" inkscape:zoom="16.0" inkscape:cx="8.0" inkscape:cy="8.0" inkscape:document-units="px" inkscape:current-layer="dialog-swatches" inkscape:document-rotation="0" showgrid="false" inkscape:grid-bbox="true" />
  <defs id="defs5479" />
  <metadata id="metadata5482">
    <rdf:RDF>
      <cc:Work rdf:about="">
        <dc:format>image/svg+xml</dc:format>
        <dc:type rdf:resource="http://purl.org/dc/dcmitype/StillImage" />
        <dc:title></dc:title>
      </cc:Work>
    </rdf:RDF>
  </metadata>
  <g inkscape:label="Layer 1" id="layer1" inkscape:groupmode="layer">
    <g id="dialog-swatches">
      <title id="title14193">dialog-swatches</title>
      <path id="path5523" style="color:#000000;opacity:1;fill-opacity:1;fill-rule:nonzero;stroke:none;stroke-opacity:1;stroke-width:2;stroke-linecap:round;stroke-linejoin:round;stroke-miterlimit:4;stroke-dasharray:none;stroke-dashoffset:0;solid-color:#000000;solid-opacity:1;mix-blend-mode:normal;isolation:auto;display:inline;visibility:visible;clip-rule:nonzero;color-interpolation:sRGB;color-rendering:auto;shape-rendering:auto" d="M 2 0 C 0.90929723 -1.4571881e-016 -2.9605947e-016 0.90929723 0 2 L 0 13 C -1.4571881e-016 14.090703 0.90929723 15 2 15 L 14 15 C 15.090703 15 16 14.090703 16 13 L 16 2 C 16 0.90929723 15.090703 -2.9605947e-016 14 0 L 2 0 z M 2 2 L 14 2 L 14 13 L 2 13 L 2 2 z " />
      <rect id="rect127732" style="stroke:none" width="4" height="4" transform="translate(-280,-200)" x="283" y="203" />
      <rect id="rect127734" style="opacity:0.5;stroke:none" width="4" height="4" transform="translate(-280,-200)" x="288" y="203" />
      <path id="rect127736" style="stroke:none" transform="translate(-280,-200)" d="m 283,208 v 4 h 4 v -4 z m 0.5,0.5 h 3 v 3 h -3 z" inkscape:connector-curvature="0" />
      <rect id="rect127743" style="opacity:0.5;stroke:none" width="2" height="2" transform="translate(-280,-200)" x="284" y="209" />
      <path id="path127745" style="stroke:none" transform="translate(-280,-200)" d="m 288,208 v 4 h 4 v -4 z m 0.5,0.5 h 3 v 3 h -3 z" inkscape:connector-curvature="0" />
      <rect id="rect127747" style="stroke:none" width="2" height="2" x="9" y="9" />
    </g>
  </g>
</svg>
