<?xml version="1.0" encoding="UTF-8" standalone="no"?>
<!-- Created with Inkscape (http://www.inkscape.org/) -->

<svg xmlns:dc="http://purl.org/dc/elements/1.1/" xmlns:cc="http://creativecommons.org/ns#" xmlns:rdf="http://www.w3.org/1999/02/22-rdf-syntax-ns#" xmlns:svg="http://www.w3.org/2000/svg" xmlns="http://www.w3.org/2000/svg" xmlns:sodipodi="http://sodipodi.sourceforge.net/DTD/sodipodi-0.dtd" xmlns:inkscape="http://www.inkscape.org/namespaces/inkscape" id="SVGRoot" version="1.1" inkscape:version="0.92+devel trunk-69-gf61892a23 2017-07-04 custom" width="24px" height="24px" viewBox="0 0 24 24" sodipodi:docname="distribute-vertical-top-symbolic.svg">
  <sodipodi:namedview id="base" pagecolor="#ffffff" bordercolor="#666666" borderopacity="1.0" inkscape:pageopacity="0.0" inkscape:pageshadow="2" inkscape:zoom="10.6666666667" inkscape:cx="12.0" inkscape:cy="12.0" inkscape:document-units="px" inkscape:current-layer="distribute-vertical-top" inkscape:document-rotation="0" showgrid="false" inkscape:grid-bbox="true" />
  <defs id="defs5055" />
  <metadata id="metadata5058">
    <rdf:RDF>
      <cc:Work rdf:about="">
        <dc:format>image/svg+xml</dc:format>
        <dc:type rdf:resource="http://purl.org/dc/dcmitype/StillImage" />
        <dc:title></dc:title>
      </cc:Work>
    </rdf:RDF>
  </metadata>
  <g inkscape:label="Layer 1" id="layer1" inkscape:groupmode="layer">
    <g id="distribute-vertical-top">
      <title id="title113198">distribute-vertical-top</title>
      <g id="use19419" transform="rotate(-90,12,12)">
        <rect id="rect18565" style="stroke:none;stroke-width:10;stroke-linecap:round;stroke-linejoin:round" width="6" height="14" x="0" y="9" ry="1" />
        <rect id="rect18567" style="stroke:none;stroke-width:10;stroke-linecap:round;stroke-linejoin:round" width="4" height="10" x="11" y="11" ry="1" />
        <rect id="rect18570" style="stroke:none;stroke-width:10;stroke-linecap:round;stroke-linejoin:round" width="6" height="8" x="18" y="10" ry="1" />
        <rect id="rect18572" style="opacity:0.6;stroke:none;stroke-width:10;stroke-linecap:round;stroke-linejoin:round" width="1" height="7" x="5" y="0" />
        <rect id="rect18574" style="opacity:0.6;stroke:none;stroke-width:10;stroke-linecap:round;stroke-linejoin:round" width="1" height="9" x="14" y="0" />
        <rect id="rect18576" style="opacity:0.6;stroke:none;stroke-width:10;stroke-linecap:round;stroke-linejoin:round" width="1" height="8" x="23" y="0" />
        <rect id="rect18578" style="stroke:none;stroke-width:10;stroke-linecap:round;stroke-linejoin:round" width="6" height="2" x="7" y="0" />
        <rect id="rect18580" style="stroke:none;stroke-width:10;stroke-linecap:round;stroke-linejoin:round" width="6" height="2" x="16" y="0" />
      </g>
    </g>
  </g>
</svg>
