<?xml version="1.0" encoding="UTF-8" standalone="no"?>
<!-- Created with Inkscape (http://www.inkscape.org/) -->

<svg xmlns:dc="http://purl.org/dc/elements/1.1/" xmlns:cc="http://creativecommons.org/ns#" xmlns:rdf="http://www.w3.org/1999/02/22-rdf-syntax-ns#" xmlns:svg="http://www.w3.org/2000/svg" xmlns="http://www.w3.org/2000/svg" xmlns:sodipodi="http://sodipodi.sourceforge.net/DTD/sodipodi-0.dtd" xmlns:inkscape="http://www.inkscape.org/namespaces/inkscape" id="SVGRoot" version="1.1" inkscape:version="0.92+devel trunk-69-gf61892a23 2017-07-04 custom" width="24px" height="24px" viewBox="0 0 24 24" sodipodi:docname="exchange-positions-clockwise-symbolic.svg">
  <sodipodi:namedview id="base" pagecolor="#ffffff" bordercolor="#666666" borderopacity="1.0" inkscape:pageopacity="0.0" inkscape:pageshadow="2" inkscape:zoom="10.6666666667" inkscape:cx="12.0" inkscape:cy="12.0" inkscape:document-units="px" inkscape:current-layer="exchange-positions-clockwise" inkscape:document-rotation="0" showgrid="false" inkscape:grid-bbox="true" />
  <defs id="defs5652" />
  <metadata id="metadata5655">
    <rdf:RDF>
      <cc:Work rdf:about="">
        <dc:format>image/svg+xml</dc:format>
        <dc:type rdf:resource="http://purl.org/dc/dcmitype/StillImage" />
        <dc:title></dc:title>
      </cc:Work>
    </rdf:RDF>
  </metadata>
  <g inkscape:label="Layer 1" id="layer1" inkscape:groupmode="layer">
    <g id="exchange-positions-clockwise">
      <title id="title113303">exchange-positions-clockwise</title>
      <path id="path23512" style="stroke:none" inkscape:transform-center-x="0.0468" inkscape:transform-center-y="-0.00045" d="m 5.1875,23.9059 -1.0937,0.062 0.031,-1 0.8748,-0.031 z M 3.3428,22.8117 2.9365,23.718 1.9688,23.2185 2.5313,22.3747 Z m 3.2822,-0.562 0.6563,0.7812 -1.0295,0.5922 -0.375,-0.9375 z M 1.8745,21.8125 1.1245,22.4687 0.4686,21.5939 1.3437,21.0936 Z M 8.75,20.9059 v 2.8438 L 5.9063,20.9059 Z m -7.7812,-1.5002 0.094,0.9055 -0.9688,0.1563 -0.1251,-1.0928 z m 7.9687,0.6867 -1,-0.094 0.031,-0.9052 0.9689,-0.094 z M 8.7173,17.9354 7.7485,18.2167 7.3743,17.4997 8.1559,16.8749 Z M 6.5,15.4684 l 0.9055,0.6245 -0.625,0.75 -0.7492,-0.4682 z M 0.25,15.2497 3.0938,18.0934 H 0.25 Z m 3.25,0.9065 -0.844,0.375 -0.4688,-0.875 1,-0.4374 z M 5.4678,15.094 5.249,16.094 4.3745,16 4.2805,15.0312 Z" inkscape:connector-curvature="0" />
      <path id="path23516" style="stroke:none" d="M 13,15 H 10 V 14 H 9 v -1 h 2 V 12 H 10 V 11 H 9 V 10 H 8 v 1 H 7 v 1 H 6 v 1 h 2 v 2 h 1 v 1 h 4 z" inkscape:connector-curvature="0" />
      <path id="path23518" style="stroke:none" d="m 14,4 h 3 v 1 h 1 v 1 h -2 v 1 h 1 v 1 h 1 v 1 h 1 V 8 h 1 V 7 h 1 V 6 H 19 V 4 H 18 V 3 h -4 z" inkscape:connector-curvature="0" />
      <rect id="rect23660" style="stroke:none" width="9" height="9" x="4" y="0" ry="1" />
      <rect id="rect23662" style="stroke:none" width="9" height="9" x="14" y="10" ry="1" />
    </g>
  </g>
</svg>
