<?xml version="1.0" encoding="UTF-8" standalone="no"?>
<!-- Created with Inkscape (http://www.inkscape.org/) -->

<svg xmlns:dc="http://purl.org/dc/elements/1.1/" xmlns:cc="http://creativecommons.org/ns#" xmlns:rdf="http://www.w3.org/1999/02/22-rdf-syntax-ns#" xmlns:svg="http://www.w3.org/2000/svg" xmlns="http://www.w3.org/2000/svg" xmlns:sodipodi="http://sodipodi.sourceforge.net/DTD/sodipodi-0.dtd" xmlns:inkscape="http://www.inkscape.org/namespaces/inkscape" id="SVGRoot" version="1.1" inkscape:version="0.92+devel trunk-75-gd3409a86d 2017-07-05 custom" width="16px" height="16px" viewBox="0 0 16 16" sodipodi:docname="layer-raise-symbolic.svg">
  <sodipodi:namedview id="base" pagecolor="#ffffff" bordercolor="#666666" borderopacity="1.0" inkscape:pageopacity="0.0" inkscape:pageshadow="2" inkscape:zoom="16.0" inkscape:cx="8.0" inkscape:cy="8.0" inkscape:document-units="px" inkscape:current-layer="layer-raise" inkscape:document-rotation="0" showgrid="false" inkscape:grid-bbox="true" />
  <defs id="defs9995" />
  <metadata id="metadata9998">
    <rdf:RDF>
      <cc:Work rdf:about="">
        <dc:format>image/svg+xml</dc:format>
        <dc:type rdf:resource="http://purl.org/dc/dcmitype/StillImage" />
        <dc:title></dc:title>
      </cc:Work>
    </rdf:RDF>
  </metadata>
  <g inkscape:label="Layer 1" id="layer1" inkscape:groupmode="layer">
    <g id="layer-raise">
      <title id="title14386">layer-raise</title>
      <path id="path19696" style="stroke:none" d="m 1,16 3,-3 h 11 l -3,3 z" inkscape:connector-curvature="0" />
      <path id="path19686" style="opacity:0.3;stroke:none" d="m 4,9 -3,3 h 11 l 3,-3 h -5 v 2 H 6 V 9 Z" inkscape:connector-curvature="0" />
      <path id="path19690" style="stroke:none" d="M 7,9.98832 H 9 V 6.99999 h 2 L 8,4.01167 5,6.99999 h 2 z" inkscape:connector-curvature="0" />
      <path id="path19688" style="stroke:none" d="M 1,3 4,0 h 11 l -3,3 z" inkscape:connector-curvature="0" />
    </g>
  </g>
</svg>
