<?xml version="1.0" encoding="UTF-8" standalone="no"?>
<!-- Created with Inkscape (http://www.inkscape.org/) -->

<svg xmlns:dc="http://purl.org/dc/elements/1.1/" xmlns:cc="http://creativecommons.org/ns#" xmlns:rdf="http://www.w3.org/1999/02/22-rdf-syntax-ns#" xmlns:svg="http://www.w3.org/2000/svg" xmlns="http://www.w3.org/2000/svg" xmlns:sodipodi="http://sodipodi.sourceforge.net/DTD/sodipodi-0.dtd" xmlns:inkscape="http://www.inkscape.org/namespaces/inkscape" id="SVGRoot" version="1.1" inkscape:version="0.92+devel trunk-69-gf61892a23 2017-07-04 custom" width="12px" height="12px" viewBox="0 0 12 12" sodipodi:docname="object-hidden-symbolic.svg">
  <sodipodi:namedview id="base" pagecolor="#ffffff" bordercolor="#666666" borderopacity="1.0" inkscape:pageopacity="0.0" inkscape:pageshadow="2" inkscape:zoom="21.3333333333" inkscape:cx="6.0" inkscape:cy="6.0" inkscape:document-units="px" inkscape:current-layer="object-hidden" inkscape:document-rotation="0" showgrid="false" inkscape:grid-bbox="true" />
  <defs id="defs5006" />
  <metadata id="metadata5009">
    <rdf:RDF>
      <cc:Work rdf:about="">
        <dc:format>image/svg+xml</dc:format>
        <dc:type rdf:resource="http://purl.org/dc/dcmitype/StillImage" />
        <dc:title></dc:title>
      </cc:Work>
    </rdf:RDF>
  </metadata>
  <g inkscape:label="Layer 1" id="layer1" inkscape:groupmode="layer">
    <g id="object-hidden">
      <title id="title88018">object-hidden</title>
      <g id="g11943">
        <path id="path8574" style="stroke:none" d="m 9.0000008,6 c 0,1.3807125 -1.3431453,2.500005 -3.0000003,2.500005 -1.6568475,0 -3,-1.1192925 -3,-2.500005 M 5.25e-7,6 C 2.000003,7.5 2.6862905,9.5000025 6.0000005,9.5000025 9.3137108,9.5000025 10.000006,7.5 12.000001,6" inkscape:connector-curvature="0" />
      </g>
    </g>
  </g>
</svg>
