<?xml version="1.0" encoding="UTF-8" standalone="no"?>
<!-- Created with Inkscape (http://www.inkscape.org/) -->

<svg xmlns:dc="http://purl.org/dc/elements/1.1/" xmlns:cc="http://creativecommons.org/ns#" xmlns:rdf="http://www.w3.org/1999/02/22-rdf-syntax-ns#" xmlns:svg="http://www.w3.org/2000/svg" xmlns="http://www.w3.org/2000/svg" xmlns:sodipodi="http://sodipodi.sourceforge.net/DTD/sodipodi-0.dtd" xmlns:inkscape="http://www.inkscape.org/namespaces/inkscape" id="SVGRoot" version="1.1" inkscape:version="0.92+devel trunk-69-gf61892a23 2017-07-04 custom" width="16px" height="16px" viewBox="0 0 16 16" sodipodi:docname="object-tweak-jitter-color-symbolic.svg">
  <sodipodi:namedview id="base" pagecolor="#ffffff" bordercolor="#666666" borderopacity="1.0" inkscape:pageopacity="0.0" inkscape:pageshadow="2" inkscape:zoom="16.0" inkscape:cx="8.0" inkscape:cy="8.0" inkscape:document-units="px" inkscape:current-layer="object-tweak-jitter-color" inkscape:document-rotation="0" showgrid="false" inkscape:grid-bbox="true" />
  <defs id="defs5316" />
  <metadata id="metadata5319">
    <rdf:RDF>
      <cc:Work rdf:about="">
        <dc:format>image/svg+xml</dc:format>
        <dc:type rdf:resource="http://purl.org/dc/dcmitype/StillImage" />
        <dc:title></dc:title>
      </cc:Work>
    </rdf:RDF>
  </metadata>
  <g inkscape:label="Layer 1" id="layer1" inkscape:groupmode="layer">
    <g id="object-tweak-jitter-color">
      <title id="title95193">object-tweak-jitter-color</title>
      <rect id="rect4567" style="stroke:none" width="4" height="4" x="2" y="10" />
      <rect id="rect4569" style="stroke:none" width="4" height="4" x="10" y="10" />
      <rect id="rect4573" style="stroke:none" width="4" height="4" x="6" y="6" />
      <rect id="rect4575" style="opacity:0.3;stroke:none" width="4" height="4" x="6" y="2" />
      <rect id="rect4577" style="opacity:0.3;stroke:none" width="4" height="4" x="10" y="6" />
      <rect id="rect4579" style="fill-opacity:0.3;stroke:none" width="4" height="4" x="6" y="10" />
      <rect id="rect4581" style="opacity:0.3;stroke:none" width="4" height="4" x="2" y="6" />
    </g>
  </g>
</svg>
