<?xml version="1.0" encoding="UTF-8" standalone="no"?>
<!-- Created with Inkscape (http://www.inkscape.org/) -->

<svg xmlns:dc="http://purl.org/dc/elements/1.1/" xmlns:cc="http://creativecommons.org/ns#" xmlns:rdf="http://www.w3.org/1999/02/22-rdf-syntax-ns#" xmlns:svg="http://www.w3.org/2000/svg" xmlns="http://www.w3.org/2000/svg" xmlns:sodipodi="http://sodipodi.sourceforge.net/DTD/sodipodi-0.dtd" xmlns:inkscape="http://www.inkscape.org/namespaces/inkscape" id="SVGRoot" version="1.1" inkscape:version="0.92+devel trunk-90-g42bf908b4 2017-07-06 custom" width="16px" height="16px" viewBox="0 0 16 16" sodipodi:docname="object-columns-symbolic.svg">
  <sodipodi:namedview id="base" pagecolor="#ffffff" bordercolor="#666666" borderopacity="1.0" inkscape:pageopacity="0.0" inkscape:pageshadow="2" inkscape:zoom="16.0" inkscape:cx="8.0" inkscape:cy="8.0" inkscape:document-units="px" inkscape:current-layer="object-columns" inkscape:document-rotation="0" showgrid="false" inkscape:grid-bbox="true" />
  <defs id="defs18492" />
  <metadata id="metadata18495">
    <rdf:RDF>
      <cc:Work rdf:about="">
        <dc:format>image/svg+xml</dc:format>
        <dc:type rdf:resource="http://purl.org/dc/dcmitype/StillImage" />
        <dc:title></dc:title>
      </cc:Work>
    </rdf:RDF>
  </metadata>
  <g inkscape:label="Layer 1" id="layer1" inkscape:groupmode="layer">
    <g id="object-columns">
      <title id="title111922">object-columns</title>
      <g id="g10940">
        <rect id="rect10934" style="stroke:none" width="4" height="14" x="1" y="1" />
        <rect id="rect10936" style="stroke:none" width="4" height="14" x="6" y="1" />
        <rect id="rect10938" style="stroke:none" width="4" height="14" x="11" y="1" />
      </g>
    </g>
  </g>
</svg>
