<?xml version="1.0" encoding="UTF-8" standalone="no"?>
<!-- Created with Inkscape (http://www.inkscape.org/) -->

<svg xmlns:dc="http://purl.org/dc/elements/1.1/" xmlns:cc="http://creativecommons.org/ns#" xmlns:rdf="http://www.w3.org/1999/02/22-rdf-syntax-ns#" xmlns:svg="http://www.w3.org/2000/svg" xmlns="http://www.w3.org/2000/svg" xmlns:sodipodi="http://sodipodi.sourceforge.net/DTD/sodipodi-0.dtd" xmlns:inkscape="http://www.inkscape.org/namespaces/inkscape" id="SVGRoot" version="1.1" inkscape:version="0.92+devel trunk-67-g1d2fa48c9 2017-07-04 custom" width="24px" height="24px" viewBox="0 0 24 24" sodipodi:docname="paint-order-fsm-symbolic.svg">
  <sodipodi:namedview id="base" pagecolor="#ffffff" bordercolor="#666666" borderopacity="1.0" inkscape:pageopacity="0.0" inkscape:pageshadow="2" inkscape:zoom="10.6666666667" inkscape:cx="12.0" inkscape:cy="12.0" inkscape:document-units="px" inkscape:current-layer="paint-order-fsm" inkscape:document-rotation="0" showgrid="false" inkscape:grid-bbox="true" />
  <defs id="defs5515" />
  <metadata id="metadata5518">
    <rdf:RDF>
      <cc:Work rdf:about="">
        <dc:format>image/svg+xml</dc:format>
        <dc:type rdf:resource="http://purl.org/dc/dcmitype/StillImage" />
        <dc:title />
      </cc:Work>
    </rdf:RDF>
  </metadata>
  <g inkscape:label="Layer 1" id="layer1" inkscape:groupmode="layer">
    <g id="paint-order-fsm">
      <title id="title13480">paint-order-fsm</title>
      <path id="path6106" style="stroke:none" d="M 18.65039,15 A 10,10 0 0 1 15,18.6445 V 23 h 8 v -8 z" inkscape:connector-curvature="0" />
      <path id="path6108" style="stroke:none" d="M 19.15234,6 A 10,10 0 0 1 20,10 10,10 0 0 1 19.16016,14 H 23 V 11 H 21 V 9 h 2 V 6 Z M 14,19.1523 A 10,10 0 0 1 10,20 10,10 0 0 1 6,19.1602 V 23 h 3 v -2 h 2 v 2 h 3 z" inkscape:connector-curvature="0" />
      <path id="circle6110" style="stroke:none" d="m 19,10 a 9,9 0 0 1 -9,9 9,9 0 0 1 -9,-9 9,9 0 0 1 9,-9 9,9 0 0 1 9,9" />
    </g>
  </g>
</svg>
