<?xml version="1.0" encoding="UTF-8" standalone="no"?>
<!-- Created with Inkscape (http://www.inkscape.org/) -->

<svg xmlns:dc="http://purl.org/dc/elements/1.1/" xmlns:cc="http://creativecommons.org/ns#" xmlns:rdf="http://www.w3.org/1999/02/22-rdf-syntax-ns#" xmlns:svg="http://www.w3.org/2000/svg" xmlns="http://www.w3.org/2000/svg" xmlns:sodipodi="http://sodipodi.sourceforge.net/DTD/sodipodi-0.dtd" xmlns:inkscape="http://www.inkscape.org/namespaces/inkscape" id="SVGRoot" version="1.1" inkscape:version="0.92+devel trunk-67-g1d2fa48c9 2017-07-04 custom" width="16px" height="16px" viewBox="0 0 16 16" sodipodi:docname="paint-none-symbolic.svg">
  <sodipodi:namedview id="base" pagecolor="#ffffff" bordercolor="#666666" borderopacity="1.0" inkscape:pageopacity="0.0" inkscape:pageshadow="2" inkscape:zoom="16.0" inkscape:cx="8.0" inkscape:cy="8.0" inkscape:document-units="px" inkscape:current-layer="paint-none" inkscape:document-rotation="0" showgrid="false" inkscape:grid-bbox="true" />
  <defs id="defs5122" />
  <metadata id="metadata5125">
    <rdf:RDF>
      <cc:Work rdf:about="">
        <dc:format>image/svg+xml</dc:format>
        <dc:type rdf:resource="http://purl.org/dc/dcmitype/StillImage" />
        <dc:title></dc:title>
      </cc:Work>
    </rdf:RDF>
  </metadata>
  <g inkscape:label="Layer 1" id="layer1" inkscape:groupmode="layer">
    <g id="paint-none">
      <title id="title111973">paint-none</title>
      <path id="path5154" style="color:#000000;opacity:1;fill-opacity:1;fill-rule:nonzero;stroke:none;stroke-opacity:1;stroke-width:2;stroke-linecap:round;stroke-linejoin:miter;stroke-miterlimit:4;stroke-dasharray:none;stroke-dashoffset:0;solid-color:#000000;solid-opacity:1;mix-blend-mode:normal;isolation:auto;display:inline;visibility:visible;clip-rule:nonzero;color-interpolation:sRGB;color-rendering:auto;shape-rendering:auto" d="M 3.9863281 3 A 1 1 0 0 0 3.2929688 3.2929688 A 1 1 0 0 0 3.2929688 4.7070312 L 6.5859375 8 L 3.2929688 11.292969 A 1 1 0 0 0 3.2929688 12.707031 A 1 1 0 0 0 4.7070312 12.707031 L 8 9.4140625 L 11.292969 12.707031 A 1 1 0 0 0 12.707031 12.707031 A 1 1 0 0 0 12.707031 11.292969 L 9.4140625 8 L 12.707031 4.7070312 A 1 1 0 0 0 12.707031 3.2929688 A 1 1 0 0 0 11.292969 3.2929688 L 8 6.5859375 L 4.7070312 3.2929688 A 1 1 0 0 0 3.9863281 3 z " />
    </g>
  </g>
</svg>
