<?xml version="1.0" encoding="UTF-8" standalone="no"?>
<!-- Created with Inkscape (http://www.inkscape.org/) -->

<svg xmlns:dc="http://purl.org/dc/elements/1.1/" xmlns:cc="http://creativecommons.org/ns#" xmlns:rdf="http://www.w3.org/1999/02/22-rdf-syntax-ns#" xmlns:svg="http://www.w3.org/2000/svg" xmlns="http://www.w3.org/2000/svg" xmlns:sodipodi="http://sodipodi.sourceforge.net/DTD/sodipodi-0.dtd" xmlns:inkscape="http://www.inkscape.org/namespaces/inkscape" id="SVGRoot" version="1.1" inkscape:version="0.92+devel trunk-69-gf61892a23 2017-07-04 custom" width="16px" height="16px" viewBox="0 0 16 16" sodipodi:docname="path-exclusion-symbolic.svg">
  <sodipodi:namedview id="base" pagecolor="#ffffff" bordercolor="#666666" borderopacity="1.0" inkscape:pageopacity="0.0" inkscape:pageshadow="2" inkscape:zoom="16.0" inkscape:cx="8.0" inkscape:cy="8.0" inkscape:document-units="px" inkscape:current-layer="path-exclusion" inkscape:document-rotation="0" showgrid="false" inkscape:grid-bbox="true" />
  <defs id="defs4377" />
  <metadata id="metadata4380">
    <rdf:RDF>
      <cc:Work rdf:about="">
        <dc:format>image/svg+xml</dc:format>
        <dc:type rdf:resource="http://purl.org/dc/dcmitype/StillImage" />
        <dc:title></dc:title>
      </cc:Work>
    </rdf:RDF>
  </metadata>
  <g inkscape:label="Layer 1" id="layer1" inkscape:groupmode="layer">
    <g id="path-exclusion">
      <title id="title14666">path-exclusion</title>
      <path id="rect9678" style="opacity:0.3;stroke:none" d="m 5,5 v 5.96875 C 5.16494,10.98364 5.33118,11 5.5,11 8.53757,11 11,8.53757 11,5.5 11,5.33118 10.98364,5.16494 10.96875,5 Z" inkscape:connector-curvature="0" />
      <path id="rect9682" style="stroke:none" d="M 5.5,0 C 2.46243,0 0,2.46243 0,5.5 0,8.36875 2.19713,10.71576 5,10.96875 V 5 h 5.96875 C 10.71576,2.19713 8.36875,0 5.5,0 Z m 5.46875,5 C 10.98364,5.16494 11,5.33118 11,5.5 11,8.53757 8.53757,11 5.5,11 5.33118,11 5.16494,10.98364 5,10.96875 V 15 H 15 V 5 Z" inkscape:connector-curvature="0" />
    </g>
  </g>
</svg>
