<?xml version="1.0" encoding="UTF-8" standalone="no"?>
<!-- Created with Inkscape (http://www.inkscape.org/) -->

<svg xmlns:dc="http://purl.org/dc/elements/1.1/" xmlns:cc="http://creativecommons.org/ns#" xmlns:rdf="http://www.w3.org/1999/02/22-rdf-syntax-ns#" xmlns:svg="http://www.w3.org/2000/svg" xmlns="http://www.w3.org/2000/svg" xmlns:sodipodi="http://sodipodi.sourceforge.net/DTD/sodipodi-0.dtd" xmlns:inkscape="http://www.inkscape.org/namespaces/inkscape" id="SVGRoot" version="1.1" inkscape:version="0.92+devel trunk-69-gf61892a23 2017-07-04 custom" width="16px" height="16px" viewBox="0 0 16 16" sodipodi:docname="show-path-outline-symbolic.svg">
  <sodipodi:namedview id="base" pagecolor="#ffffff" bordercolor="#666666" borderopacity="1.0" inkscape:pageopacity="0.0" inkscape:pageshadow="2" inkscape:zoom="16.0" inkscape:cx="8.0" inkscape:cy="8.0" inkscape:document-units="px" inkscape:current-layer="show-path-outline" inkscape:document-rotation="0" showgrid="false" inkscape:grid-bbox="true" />
  <defs id="defs4388" />
  <metadata id="metadata4391">
    <rdf:RDF>
      <cc:Work rdf:about="">
        <dc:format>image/svg+xml</dc:format>
        <dc:type rdf:resource="http://purl.org/dc/dcmitype/StillImage" />
        <dc:title></dc:title>
      </cc:Work>
    </rdf:RDF>
  </metadata>
  <g inkscape:label="Layer 1" id="layer1" inkscape:groupmode="layer">
    <g id="show-path-outline">
      <title id="title9643">show-path-outline</title>
      <path id="path17232" style="stroke:none" d="m 10.3437,2.0753174 c -2.8268,0.3559 -4.9439,1.7885 -6.3125,3.5937 -1.8247,2.407 -2.3899,5.4512996 -1.8125,7.7812996 l 0.0625,0.3437 0.375,0.0625 c 6.6954,1.1257 12.3021,-4.5669996 11.1875,-11.3124996 l -0.0625,-0.375 -0.375,-0.0625 c -1.1005,-0.1387 -2.1202,-0.1498 -3.0625,-0.0312 z m 0.125,1.0625 c 0.7268,-0.0878 1.5257,-0.0474 2.375,0.0313 0.6789,5.7343 -3.916,10.3399996 -9.5937,9.6561996 -0.3532,-1.9263 0.094,-4.5116996 1.625,-6.5311996 1.2158,-1.6038 3.0406,-2.8479 5.5937,-3.1563 z" inkscape:connector-curvature="0" />
      <rect id="rect17215" style="stroke:none" width="4" height="4" x="12" y="0" />
      <rect id="rect17217" style="stroke:none" width="4" height="4" x="0" y="12" />
    </g>
  </g>
</svg>
