<?xml version="1.0" encoding="UTF-8" standalone="no"?>
<!-- Created with Inkscape (http://www.inkscape.org/) -->

<svg xmlns:dc="http://purl.org/dc/elements/1.1/" xmlns:cc="http://creativecommons.org/ns#" xmlns:rdf="http://www.w3.org/1999/02/22-rdf-syntax-ns#" xmlns:svg="http://www.w3.org/2000/svg" xmlns="http://www.w3.org/2000/svg" xmlns:sodipodi="http://sodipodi.sourceforge.net/DTD/sodipodi-0.dtd" xmlns:inkscape="http://www.inkscape.org/namespaces/inkscape" id="SVGRoot" version="1.1" inkscape:version="0.92+devel trunk-69-gf61892a23 2017-07-04 custom" width="16px" height="16px" viewBox="0 0 16 16" sodipodi:docname="spray-mode-clone-symbolic.svg">
  <sodipodi:namedview id="base" pagecolor="#ffffff" bordercolor="#666666" borderopacity="1.0" inkscape:pageopacity="0.0" inkscape:pageshadow="2" inkscape:zoom="16.0" inkscape:cx="8.0" inkscape:cy="8.0" inkscape:document-units="px" inkscape:current-layer="spray-mode-clone" inkscape:document-rotation="0" showgrid="false" inkscape:grid-bbox="true" />
  <defs id="defs4332" />
  <metadata id="metadata4335">
    <rdf:RDF>
      <cc:Work rdf:about="">
        <dc:format>image/svg+xml</dc:format>
        <dc:type rdf:resource="http://purl.org/dc/dcmitype/StillImage" />
        <dc:title></dc:title>
      </cc:Work>
    </rdf:RDF>
  </metadata>
  <g inkscape:label="Layer 1" id="layer1" inkscape:groupmode="layer">
    <g id="spray-mode-clone">
      <title id="title74130">spray-mode-clone</title>
      <path id="path16465" style="stroke:none" d="m 0,6 v 9 H 11 V 6 Z m 1,1 h 9 v 7 H 1 Z" inkscape:connector-curvature="0" />
      <path id="path16467" style="stroke:none" d="m 5,1 v 4 h 7 v 5 h 4 V 1 Z" inkscape:connector-curvature="0" />
      <rect id="rect16480" style="stroke:none" width="7" height="5" x="2" y="8" />
    </g>
  </g>
</svg>
