<?xml version="1.0" encoding="UTF-8" standalone="no"?>
<!-- Created with Inkscape (http://www.inkscape.org/) -->

<svg xmlns:dc="http://purl.org/dc/elements/1.1/" xmlns:cc="http://creativecommons.org/ns#" xmlns:rdf="http://www.w3.org/1999/02/22-rdf-syntax-ns#" xmlns:svg="http://www.w3.org/2000/svg" xmlns="http://www.w3.org/2000/svg" xmlns:sodipodi="http://sodipodi.sourceforge.net/DTD/sodipodi-0.dtd" xmlns:inkscape="http://www.inkscape.org/namespaces/inkscape" id="SVGRoot" version="1.1" inkscape:version="0.92+devel trunk-67-g1d2fa48c9 2017-07-04 custom" width="16px" height="16px" viewBox="0 0 16 16" sodipodi:docname="symbol-bigger-symbolic.svg">
  <sodipodi:namedview id="base" pagecolor="#ffffff" bordercolor="#666666" borderopacity="1.0" inkscape:pageopacity="0.0" inkscape:pageshadow="2" inkscape:zoom="16.0" inkscape:cx="8.0" inkscape:cy="8.0" inkscape:document-units="px" inkscape:current-layer="symbol-bigger" inkscape:document-rotation="0" showgrid="false" inkscape:grid-bbox="true" />
  <defs id="defs6910" />
  <metadata id="metadata6913">
    <rdf:RDF>
      <cc:Work rdf:about="">
        <dc:format>image/svg+xml</dc:format>
        <dc:type rdf:resource="http://purl.org/dc/dcmitype/StillImage" />
        <dc:title></dc:title>
      </cc:Work>
    </rdf:RDF>
  </metadata>
  <g inkscape:label="Layer 1" id="layer1" inkscape:groupmode="layer">
    <g id="symbol-bigger">
      <title id="title112449">symbol-bigger</title>
      <circle id="circle50367" style="opacity:0.25;stroke:none" r="6.5" cx="8" cy="8" />
      <path id="path6946" style="color:#000000;opacity:1;fill-opacity:1;fill-rule:nonzero;stroke:none;stroke-opacity:1;stroke-width:1;stroke-linecap:butt;stroke-linejoin:miter;stroke-miterlimit:4;stroke-dasharray:1, 1;stroke-dashoffset:0;solid-color:#000000;solid-opacity:1;mix-blend-mode:normal;isolation:auto;display:inline;visibility:visible;clip-rule:nonzero;color-interpolation:sRGB;color-rendering:auto;shape-rendering:auto" d="M 7.0429688 3.09375 L 6.9921875 3.0996094 L 6.9453125 3.1132812 L 6.6933594 3.1914062 L 6.9902344 4.1464844 L 7.1875 4.0859375 L 7.8769531 4.015625 L 7.7753906 3.0195312 z M 8.7792969 3.9980469 L 8.7578125 4.0683594 L 8.7714844 4.0722656 L 8.7714844 4.0800781 L 8.8085938 4.0839844 L 9.6035156 4.3320312 L 9.7089844 3.9941406 L 10.015625 3.4277344 L 9.9902344 3.4140625 L 9.9472656 3.390625 L 9.9003906 3.3769531 L 9.0546875 3.1132812 L 9.0078125 3.0996094 L 8.9570312 3.09375 L 8.8710938 3.0859375 z M 5.2460938 3.828125 L 5.203125 3.8515625 L 5.1660156 3.8828125 L 4.7734375 4.2070312 L 5.4101562 4.9785156 L 5.7695312 4.6816406 L 6.1542969 4.4746094 L 5.6777344 3.5957031 z M 10.320312 4.7558594 L 10.826172 5.171875 L 10.984375 5.3652344 L 11.755859 4.7285156 L 11.568359 4.5 L 11.537109 4.4628906 L 11.5 4.4316406 L 10.957031 3.984375 z M 3.8828125 5.1660156 L 3.8515625 5.203125 L 3.828125 5.2460938 L 3.4550781 5.9335938 L 4.3339844 6.4101562 L 4.6816406 5.7695312 L 4.7929688 5.6347656 L 4.0214844 4.9980469 z M 11.498047 6.1035156 L 11.681641 6.4394531 L 11.835938 6.9335938 L 12.791016 6.6386719 L 12.623047 6.0996094 L 12.609375 6.0527344 L 12.585938 6.0097656 L 12.376953 5.625 z M 3.0019531 7.9492188 L 2.9980469 8 L 3.0019531 8.0507812 L 3.0136719 8.1660156 L 4.0097656 8.0664062 L 4.0039062 8 L 4.0859375 7.171875 L 3.0917969 7.0703125 z M 11.978516 7.8183594 L 11.996094 8 L 11.914062 8.8105469 L 11.904297 8.84375 L 11.912109 8.8457031 L 11.910156 8.8574219 L 11.966797 8.8632812 L 12.859375 9.140625 L 12.886719 9.0546875 L 12.900391 9.0078125 L 12.90625 8.9570312 L 12.998047 8.0507812 L 12.5 8 L 12.998047 7.9492188 L 12.974609 7.71875 z M 3.1738281 9.25 L 3.3769531 9.9003906 L 3.390625 9.9472656 L 3.4140625 9.9902344 L 3.5664062 10.271484 L 4.4453125 9.7949219 L 4.3183594 9.5605469 L 4.1289062 8.9550781 z M 11.318359 10.230469 L 11.132812 10.455078 L 11.904297 11.091797 L 12.117188 10.833984 L 12.148438 10.796875 L 12.171875 10.753906 L 12.488281 10.169922 L 11.609375 9.6933594 z M 4.1699219 11.181641 L 4.4316406 11.5 L 4.4628906 11.537109 L 4.5 11.568359 L 4.953125 11.941406 L 5.5898438 11.169922 L 5.1738281 10.826172 L 4.9414062 10.544922 z M 10.230469 11.318359 L 9.7441406 11.582031 L 10.220703 12.460938 L 10.753906 12.171875 L 10.796875 12.148438 L 10.833984 12.117188 L 11.136719 11.867188 L 10.5 11.095703 z M 5.8808594 12.515625 L 6.0097656 12.585938 L 6.0527344 12.609375 L 6.0996094 12.623047 L 6.9160156 12.876953 L 7.2128906 11.921875 L 6.4414062 11.681641 L 6.359375 11.636719 z M 8.8105469 11.914062 L 8.0078125 11.996094 L 8.1074219 12.992188 L 8.9570312 12.90625 L 9.0078125 12.900391 L 9.0546875 12.886719 L 9.1953125 12.841797 L 8.8984375 11.886719 z " />
      <path id="path6952" style="color:#000000;opacity:1;fill-opacity:1;fill-rule:nonzero;stroke:none;stroke-opacity:1;stroke-width:1;stroke-linecap:butt;stroke-linejoin:miter;stroke-miterlimit:4;stroke-dasharray:none;stroke-dashoffset:0;solid-color:#000000;solid-opacity:1;mix-blend-mode:normal;isolation:auto;display:inline;visibility:visible;clip-rule:nonzero;color-interpolation:sRGB;color-rendering:auto;shape-rendering:auto" d="M 8 1 C 4.1399291 1 1 4.1399291 1 8 C 1 11.860071 4.1399291 15 8 15 C 11.860071 15 15 11.860071 15 8 C 15 4.1399291 11.860071 1 8 1 z M 8 2 C 11.319631 2 14 4.6803692 14 8 C 14 11.319631 11.319631 14 8 14 C 4.6803692 14 2 11.319631 2 8 C 2 4.6803692 4.6803692 2 8 2 z " />
    </g>
  </g>
</svg>
