<?xml version="1.0" encoding="UTF-8" standalone="no"?>
<!-- Created with Inkscape (http://www.inkscape.org/) -->

<svg xmlns:dc="http://purl.org/dc/elements/1.1/" xmlns:cc="http://creativecommons.org/ns#" xmlns:rdf="http://www.w3.org/1999/02/22-rdf-syntax-ns#" xmlns:svg="http://www.w3.org/2000/svg" xmlns="http://www.w3.org/2000/svg" xmlns:sodipodi="http://sodipodi.sourceforge.net/DTD/sodipodi-0.dtd" xmlns:inkscape="http://www.inkscape.org/namespaces/inkscape" id="SVGRoot" version="1.1" inkscape:version="0.92+devel trunk-75-gd3409a86d 2017-07-05 custom" width="16px" height="16px" viewBox="0 0 16 16" sodipodi:docname="text-unflow-symbolic.svg">
  <sodipodi:namedview id="base" pagecolor="#ffffff" bordercolor="#666666" borderopacity="1.0" inkscape:pageopacity="0.0" inkscape:pageshadow="2" inkscape:zoom="16.0" inkscape:cx="8.0" inkscape:cy="8.0" inkscape:document-units="px" inkscape:current-layer="text-unflow" inkscape:document-rotation="0" showgrid="false" inkscape:grid-bbox="true" />
  <defs id="defs5318" />
  <metadata id="metadata5321">
    <rdf:RDF>
      <cc:Work rdf:about="">
        <dc:format>image/svg+xml</dc:format>
        <dc:type rdf:resource="http://purl.org/dc/dcmitype/StillImage" />
        <dc:title></dc:title>
      </cc:Work>
    </rdf:RDF>
  </metadata>
  <g inkscape:label="Layer 1" id="layer1" inkscape:groupmode="layer">
    <g id="text-unflow">
      <title id="title14807">text-unflow</title>
      <rect id="rect12692" style="stroke:none" width="1" height="1" x="0" y="0" />
      <rect id="rect12694" style="stroke:none" width="1" height="1" x="2" y="0" />
      <rect id="rect12696" style="stroke:none" width="1" height="1" x="4" y="0" />
      <rect id="rect12698" style="stroke:none" width="1" height="1" x="6" y="0" />
      <rect id="rect12700" style="stroke:none" width="1" height="1" x="8" y="0" />
      <rect id="rect12704" style="stroke:none" width="1" height="1" x="10" y="0" />
      <rect id="rect12706" style="stroke:none" width="1" height="1" x="0" y="4" />
      <rect id="rect12710" style="stroke:none" width="1" height="1" x="0" y="6" />
      <rect id="rect12712" style="stroke:none" width="1" height="1" x="0" y="8" />
      <rect id="rect12714" style="stroke:none" width="1" height="1" x="0" y="10" />
      <rect id="rect12716" style="stroke:none" width="1" height="1" x="0" y="12" />
      <rect id="rect12718" style="stroke:none" width="1" height="1" x="0" y="14" />
      <rect id="rect12720" style="stroke:none" width="1" height="1" x="0" y="2" />
      <rect id="rect12722" style="stroke:none" width="1" height="1" x="14" y="0" />
      <rect id="rect12724" style="stroke:none" width="1" height="1" x="12" y="0" />
      <rect id="rect12726" style="stroke:none" width="1" height="1" x="2" y="14" />
      <rect id="rect12728" style="stroke:none" width="1" height="1" x="4" y="14" />
      <rect id="rect12730" style="stroke:none" width="1" height="1" x="6" y="14" />
      <rect id="rect12732" style="stroke:none" width="1" height="1" x="8" y="14" />
      <rect id="rect12742" style="stroke:none" width="1" height="1" x="14" y="4" />
      <rect id="rect12744" style="stroke:none" width="1" height="1" x="14" y="6" />
      <rect id="rect12746" style="stroke:none" width="1" height="1" x="14" y="8" />
      <rect id="rect12750" style="stroke:none" width="1" height="1" x="14" y="2" />
      <path id="path18300" style="stroke:none" d="m 10,11 h 2 l 4,5 h -2 z" inkscape:connector-curvature="0" />
      <path id="path18302" style="stroke:none" d="m 16,11 h -2 l -4,5 h 2 z" inkscape:connector-curvature="0" />
      <path id="path18349-8" style="stroke:none" d="M 7.03749,8.54253 H 3.96224 L 3.47695,10 H 1.5 L 4.32494,2 h 2.34475 l 2.82494,8 H 7.51768 Z M 4.45265,7.05827 H 6.54198 L 5.49987,3.87542 Z" inkscape:connector-curvature="0" />
    </g>
  </g>
</svg>
