<?xml version="1.0" encoding="UTF-8" standalone="no"?>
<!-- Created with Inkscape (http://www.inkscape.org/) -->

<svg xmlns:dc="http://purl.org/dc/elements/1.1/" xmlns:cc="http://creativecommons.org/ns#" xmlns:rdf="http://www.w3.org/1999/02/22-rdf-syntax-ns#" xmlns:svg="http://www.w3.org/2000/svg" xmlns="http://www.w3.org/2000/svg" xmlns:sodipodi="http://sodipodi.sourceforge.net/DTD/sodipodi-0.dtd" xmlns:inkscape="http://www.inkscape.org/namespaces/inkscape" id="SVGRoot" version="1.1" inkscape:version="0.92+devel trunk-69-gf61892a23 2017-07-04 custom" width="16px" height="16px" viewBox="0 0 16 16" sodipodi:docname="text_horz_kern-symbolic.svg">
  <sodipodi:namedview id="base" pagecolor="#ffffff" bordercolor="#666666" borderopacity="1.0" inkscape:pageopacity="0.0" inkscape:pageshadow="2" inkscape:zoom="16.0" inkscape:cx="8.0" inkscape:cy="8.0" inkscape:document-units="px" inkscape:current-layer="text_horz_kern" inkscape:document-rotation="0" showgrid="false" inkscape:grid-bbox="true" />
  <defs id="defs4306" />
  <metadata id="metadata4309">
    <rdf:RDF>
      <cc:Work rdf:about="">
        <dc:format>image/svg+xml</dc:format>
        <dc:type rdf:resource="http://purl.org/dc/dcmitype/StillImage" />
        <dc:title></dc:title>
      </cc:Work>
    </rdf:RDF>
  </metadata>
  <g inkscape:label="Layer 1" id="layer1" inkscape:groupmode="layer">
    <g id="text_horz_kern">
      <title id="title12725">text_horz_kern</title>
      <rect id="rect11801" style="opacity:0.75;stroke:none" width="1" height="16" x="7" y="0" />
      <g id="text11805" style="stroke:none;font-family:sans-serif;-inkscape-font-specification:'sans-serif Bold';font-size:9px;font-weight:bold;letter-spacing:0px;word-spacing:0px;text-anchor:middle;text-decoration-color:#000000" aria-label="AA">
        <path id="path12436" d="M 4.8422852,10.804688 H 2.1967773 L 1.7792969,12 H 0.07861328 L 2.5087891,5.4389648 H 4.5258789 L 6.9560547,12 H 5.2553711 Z M 2.6186523,9.5874023 H 4.4160156 L 3.5195313,6.9770508 Z" inkscape:connector-curvature="0" />
        <path id="path12438" d="M 12.807617,10.804688 H 10.162109 L 9.7446289,12 H 8.0439453 L 10.474121,5.4389648 h 2.01709 L 14.921387,12 H 13.220703 Z M 10.583984,9.5874023 h 1.797364 L 11.484863,6.9770508 Z" inkscape:connector-curvature="0" />
      </g>
    </g>
  </g>
</svg>
