<?xml version="1.0" encoding="UTF-8" standalone="no"?>
<!-- Created with Inkscape (http://www.inkscape.org/) -->

<svg xmlns:dc="http://purl.org/dc/elements/1.1/" xmlns:cc="http://creativecommons.org/ns#" xmlns:rdf="http://www.w3.org/1999/02/22-rdf-syntax-ns#" xmlns:svg="http://www.w3.org/2000/svg" xmlns="http://www.w3.org/2000/svg" xmlns:sodipodi="http://sodipodi.sourceforge.net/DTD/sodipodi-0.dtd" xmlns:inkscape="http://www.inkscape.org/namespaces/inkscape" id="SVGRoot" version="1.1" inkscape:version="0.92+devel trunk-69-gf61892a23 2017-07-04 custom" width="24px" height="24px" viewBox="0 0 24 24" sodipodi:docname="transform-rotate-symbolic.svg">
  <sodipodi:namedview id="base" pagecolor="#ffffff" bordercolor="#666666" borderopacity="1.0" inkscape:pageopacity="0.0" inkscape:pageshadow="2" inkscape:zoom="10.6666666667" inkscape:cx="12.0" inkscape:cy="12.0" inkscape:document-units="px" inkscape:current-layer="transform-rotate" inkscape:document-rotation="0" showgrid="false" inkscape:grid-bbox="true" />
  <defs id="defs4467" />
  <metadata id="metadata4470">
    <rdf:RDF>
      <cc:Work rdf:about="">
        <dc:format>image/svg+xml</dc:format>
        <dc:type rdf:resource="http://purl.org/dc/dcmitype/StillImage" />
        <dc:title />
      </cc:Work>
    </rdf:RDF>
  </metadata>
  <g inkscape:label="Layer 1" id="layer1" inkscape:groupmode="layer">
    <g id="transform-rotate" style="display:inline">
      <title id="title112968">transform-rotate</title>
      <g id="g11808">
        <rect id="rect11810" style="opacity:0.3;fill-rule:evenodd;stroke:none" width="10" height="16" x="7" y="4" />
        <rect id="rect11812" style="fill-rule:evenodd;stroke:none" width="8" height="16" transform="rotate(-45)" x="-4" y="8.9705629" />
        <g id="g9141" transform="translate(-9,10)">
          <g id="g11815" transform="translate(21,-15)">
            <path id="path4547" style="color:#000000;opacity:1;fill-opacity:1;fill-rule:nonzero;stroke:none;stroke-opacity:1;stroke-width:2;stroke-linecap:butt;stroke-linejoin:round;stroke-miterlimit:4;stroke-dasharray:none;stroke-dashoffset:0;solid-color:#000000;solid-opacity:1;mix-blend-mode:normal;isolation:auto;display:inline;visibility:visible;clip-rule:nonzero;color-interpolation:sRGB;color-rendering:auto;shape-rendering:auto" d="m 4.2929688,6.2929688 -3,3 a 1.0001,1.0001 0 0 0 0,1.4140622 l 3,3 L 5.7070312,12.292969 3.4140625,10 5.7070312,7.7070312 Z" inkscape:connector-curvature="0" />
            <path id="circle11819" style="stroke:none" d="M 6,7 A 1,1 0 0 1 5,8 1,1 0 0 1 4,7 1,1 0 0 1 5,6 1,1 0 0 1 6,7" />
            <path id="circle11821" style="stroke:none" d="M 6,13 A 1,1 0 0 1 5,14 1,1 0 0 1 4,13 1,1 0 0 1 5,12 1,1 0 0 1 6,13" />
            <rect id="rect11823" style="stroke:none" width="1" height="1" x="5" y="6" />
            <rect id="rect11825" style="stroke:none" width="1" height="1" x="5" y="13" />
          </g>
          <g id="g9136">
            <path id="path4553" style="color:#000000;opacity:1;fill-opacity:1;fill-rule:nonzero;stroke:none;stroke-opacity:1;stroke-width:2;stroke-linecap:round;stroke-linejoin:miter;stroke-miterlimit:4;stroke-dasharray:none;stroke-dashoffset:0;solid-color:#000000;solid-opacity:1;mix-blend-mode:normal;isolation:auto;display:inline;visibility:visible;clip-rule:nonzero;color-interpolation:sRGB;color-rendering:auto;shape-rendering:auto" d="m 23,-6 a 1,1 0 0 0 -1,1 1,1 0 0 0 1,1 h 3 a 1,1 0 0 0 1,-1 1,1 0 0 0 -1,-1 z" inkscape:connector-curvature="0" />
            <path id="path4559" style="color:#000000;opacity:1;fill-opacity:1;fill-rule:nonzero;stroke:none;stroke-opacity:1;stroke-width:2;stroke-linecap:round;stroke-linejoin:round;stroke-miterlimit:4;stroke-dasharray:none;stroke-dashoffset:0;solid-color:#000000;solid-opacity:1;mix-blend-mode:normal;isolation:auto;display:inline;visibility:visible;clip-rule:nonzero;color-interpolation:sRGB;color-rendering:auto;shape-rendering:auto" d="m 26,-6 a 1,1 0 0 0 -1,1 1,1 0 0 0 1,1 c 2.220985,0 4,1.7790153 4,4 a 1,1 0 0 0 1,1 1,1 0 0 0 1,-1 c 0,-3.3018649 -2.698135,-5.9999999 -6,-6 z" inkscape:connector-curvature="0" />
            <path id="path4565" style="color:#000000;opacity:1;fill-opacity:1;fill-rule:nonzero;stroke:none;stroke-opacity:1;stroke-width:2;stroke-linecap:round;stroke-linejoin:miter;stroke-miterlimit:4;stroke-dasharray:none;stroke-dashoffset:0;solid-color:#000000;solid-opacity:1;mix-blend-mode:normal;isolation:auto;display:inline;visibility:visible;clip-rule:nonzero;color-interpolation:sRGB;color-rendering:auto;shape-rendering:auto" d="m 31,-1 a 1,1 0 0 0 -1,1 v 1 a 1,1 0 0 0 1,1 1,1 0 0 0 1,-1 V 0 a 1,1 0 0 0 -1,-1 z" inkscape:connector-curvature="0" />
          </g>
        </g>
        <g id="g9153" transform="rotate(180,16.499999,7)">
          <g id="g9155" transform="translate(20.999998,-15)">
            <path id="path4571" style="color:#000000;opacity:1;fill-opacity:1;fill-rule:nonzero;stroke:none;stroke-opacity:1;stroke-width:2;stroke-linecap:butt;stroke-linejoin:round;stroke-miterlimit:4;stroke-dasharray:none;stroke-dashoffset:0;solid-color:#000000;solid-opacity:1;mix-blend-mode:normal;isolation:auto;display:inline;visibility:visible;clip-rule:nonzero;color-interpolation:sRGB;color-rendering:auto;shape-rendering:auto" transform="translate(-20,-180)" d="m 24.292969,186.29297 -3,3 a 1.0001,1.0001 0 0 0 0,1.41406 l 3,3 1.414062,-1.41406 L 23.414062,190 l 2.292969,-2.29297 z" inkscape:connector-curvature="0" />
            <path id="circle9159" style="stroke:none" transform="translate(-20,-180)" d="m 26,187 a 1,1 0 0 1 -1,1 1,1 0 0 1 -1,-1 1,1 0 0 1 1,-1 1,1 0 0 1 1,1" />
            <path id="circle9161" style="stroke:none" transform="translate(-20,-180)" d="m 26,193 a 1,1 0 0 1 -1,1 1,1 0 0 1 -1,-1 1,1 0 0 1 1,-1 1,1 0 0 1 1,1" />
            <rect id="rect9163" style="stroke:none" width="1" height="1" transform="translate(-20,-180)" x="25" y="186" />
            <rect id="rect9165" style="stroke:none" width="1" height="1" transform="translate(-20,-180)" x="25" y="193" />
          </g>
          <g id="g9167">
            <path id="path4577" style="color:#000000;opacity:1;fill-opacity:1;fill-rule:nonzero;stroke:none;stroke-opacity:1;stroke-width:2;stroke-linecap:round;stroke-linejoin:miter;stroke-miterlimit:4;stroke-dasharray:none;stroke-dashoffset:0;solid-color:#000000;solid-opacity:1;mix-blend-mode:normal;isolation:auto;display:inline;visibility:visible;clip-rule:nonzero;color-interpolation:sRGB;color-rendering:auto;shape-rendering:auto" d="m 23,-6 a 1,1 0 0 0 -1,1 1,1 0 0 0 1,1 h 3 a 1,1 0 0 0 1,-1 1,1 0 0 0 -1,-1 z" inkscape:connector-curvature="0" />
            <path id="path4583" style="color:#000000;opacity:1;fill-opacity:1;fill-rule:nonzero;stroke:none;stroke-opacity:1;stroke-width:2;stroke-linecap:round;stroke-linejoin:round;stroke-miterlimit:4;stroke-dasharray:none;stroke-dashoffset:0;solid-color:#000000;solid-opacity:1;mix-blend-mode:normal;isolation:auto;display:inline;visibility:visible;clip-rule:nonzero;color-interpolation:sRGB;color-rendering:auto;shape-rendering:auto" d="m 26,-6 a 1,1 0 0 0 -1,1 1,1 0 0 0 1,1 c 2.220985,0 4,1.7790153 4,4 a 1,1 0 0 0 1,1 1,1 0 0 0 1,-1 c 0,-3.3018649 -2.698135,-5.9999999 -6,-6 z" inkscape:connector-curvature="0" />
            <path id="path4589" style="color:#000000;opacity:1;fill-opacity:1;fill-rule:nonzero;stroke:none;stroke-opacity:1;stroke-width:2;stroke-linecap:round;stroke-linejoin:miter;stroke-miterlimit:4;stroke-dasharray:none;stroke-dashoffset:0;solid-color:#000000;solid-opacity:1;mix-blend-mode:normal;isolation:auto;display:inline;visibility:visible;clip-rule:nonzero;color-interpolation:sRGB;color-rendering:auto;shape-rendering:auto" d="m 31,-1 a 1,1 0 0 0 -1,1 v 1 a 1,1 0 0 0 1,1 1,1 0 0 0 1,-1 V 0 a 1,1 0 0 0 -1,-1 z" inkscape:connector-curvature="0" />
          </g>
        </g>
      </g>
    </g>
  </g>
</svg>
