<?xml version="1.0" encoding="UTF-8" standalone="no"?>
<!-- Created with Inkscape (http://www.inkscape.org/) -->

<svg xmlns:dc="http://purl.org/dc/elements/1.1/" xmlns:cc="http://creativecommons.org/ns#" xmlns:rdf="http://www.w3.org/1999/02/22-rdf-syntax-ns#" xmlns:svg="http://www.w3.org/2000/svg" xmlns="http://www.w3.org/2000/svg" xmlns:sodipodi="http://sodipodi.sourceforge.net/DTD/sodipodi-0.dtd" xmlns:inkscape="http://www.inkscape.org/namespaces/inkscape" id="SVGRoot" version="1.1" inkscape:version="0.92+devel trunk-67-g1d2fa48c9 2017-07-04 custom" width="16px" height="16px" viewBox="0 0 16 16" sodipodi:docname="zoom-in-symbolic.svg">
  <sodipodi:namedview id="base" pagecolor="#ffffff" bordercolor="#666666" borderopacity="1.0" inkscape:pageopacity="0.0" inkscape:pageshadow="2" inkscape:zoom="16.0" inkscape:cx="8.0" inkscape:cy="8.0" inkscape:document-units="px" inkscape:current-layer="zoom-in" inkscape:document-rotation="0" showgrid="false" inkscape:grid-bbox="true" />
  <defs id="defs4454" />
  <metadata id="metadata4457">
    <rdf:RDF>
      <cc:Work rdf:about="">
        <dc:format>image/svg+xml</dc:format>
        <dc:type rdf:resource="http://purl.org/dc/dcmitype/StillImage" />
        <dc:title></dc:title>
      </cc:Work>
    </rdf:RDF>
  </metadata>
  <g inkscape:label="Layer 1" id="layer1" inkscape:groupmode="layer">
    <g id="zoom-in">
      <title id="title14092">zoom-in</title>
      <path id="path9019" style="color:#000000;stroke:none;stroke-width:2" d="M 3.1875,1.9999974 C 2.5248,1.9999974 2,2.5489874 2,3.2187474 v 9.5624996 c 0,0.66976 0.5248,1.21875 1.1875,1.21875 h 9.625 c 0.6627,0 1.1875,-0.54899 1.1875,-1.21875 V 3.2187474 c 0,-0.66976 -0.5248,-1.21875 -1.1875,-1.21875 z m 3.8125,3 h 2 v 2 h 2 v 2 H 9 V 10.999997 H 7 V 8.9999974 H 5 v -2 h 2 z" inkscape:connector-curvature="0" />
    </g>
  </g>
</svg>
