<?xml version="1.0" encoding="UTF-8" standalone="no"?>
<!-- Created with Inkscape (http://www.inkscape.org/) -->

<svg xmlns:dc="http://purl.org/dc/elements/1.1/" xmlns:cc="http://creativecommons.org/ns#" xmlns:rdf="http://www.w3.org/1999/02/22-rdf-syntax-ns#" xmlns:svg="http://www.w3.org/2000/svg" xmlns="http://www.w3.org/2000/svg" xmlns:sodipodi="http://sodipodi.sourceforge.net/DTD/sodipodi-0.dtd" xmlns:inkscape="http://www.inkscape.org/namespaces/inkscape" id="SVGRoot" version="1.1" inkscape:version="0.92+devel trunk-67-g1d2fa48c9 2017-07-04 custom" width="16px" height="16px" viewBox="0 0 16 16" sodipodi:docname="zoom-half-size-symbolic.svg">
  <sodipodi:namedview id="base" pagecolor="#ffffff" bordercolor="#666666" borderopacity="1.0" inkscape:pageopacity="0.0" inkscape:pageshadow="2" inkscape:zoom="16.0" inkscape:cx="8.0" inkscape:cy="8.0" inkscape:document-units="px" inkscape:current-layer="zoom-half-size" inkscape:document-rotation="0" showgrid="false" inkscape:grid-bbox="true" />
  <defs id="defs4633" />
  <metadata id="metadata4636">
    <rdf:RDF>
      <cc:Work rdf:about="">
        <dc:format>image/svg+xml</dc:format>
        <dc:type rdf:resource="http://purl.org/dc/dcmitype/StillImage" />
        <dc:title></dc:title>
      </cc:Work>
    </rdf:RDF>
  </metadata>
  <g inkscape:label="Layer 1" id="layer1" inkscape:groupmode="layer">
    <g id="zoom-half-size">
      <title id="title14107">zoom-half-size</title>
      <path id="rect10226" style="stroke:none" transform="translate(-80,-200)" d="m 83,202 c -0.554,0 -1,0.446 -1,1 v 10 c 0,0.554 0.446,1 1,1 h 10 c 0.554,0 1,-0.446 1,-1 v -10 c 0,-0.554 -0.446,-1 -1,-1 z m 5.6875,3 h 1.09375 l -3.15625,6 h -1.0625 z m -3.75,0.0312 h 0.96875 v 3.71875 H 84.8125 V 206.3437 H 83.875 v -0.75 c 0.299061,0 0.552406,-0.0315 0.75,-0.125 0.200264,-0.0961 0.291139,-0.23986 0.3125,-0.43745 z m 5.5625,2.1563 c 0.493983,0 0.857981,0.0863 1.125,0.28125 0.269689,0.19492 0.40625,0.50117 0.40625,0.875 0,0.21628 -0.03154,0.42741 -0.125,0.625 -0.09346,0.19759 -0.304578,0.40713 -0.625,0.6875 -0.09079,0.0801 -0.210241,0.18512 -0.34375,0.28125 -0.130839,0.0935 -0.247623,0.18057 -0.34375,0.25 h 1.6875 V 211 H 89.0625 v -0.75 c 0.184243,-0.10948 0.362236,-0.24683 0.5625,-0.375 0.200264,-0.12817 0.3924,-0.23427 0.53125,-0.34375 0.299061,-0.23231 0.490405,-0.42365 0.5625,-0.5625 0.07476,-0.14152 0.09375,-0.26206 0.09375,-0.40625 0,-0.15754 -0.04677,-0.29222 -0.15625,-0.375 -0.106807,-0.0855 -0.257806,-0.125 -0.46875,-0.125 -0.152201,0 -0.315757,0.0297 -0.5,0.0937 -0.181572,0.0641 -0.35314,0.13331 -0.5,0.21875 h -0.09375 v -0.9375 c 0.173562,-0.0614 0.371333,-0.13677 0.625,-0.1875 0.256337,-0.0507 0.524912,-0.0625 0.78125,-0.0625 z" inkscape:connector-curvature="0" />
    </g>
  </g>
</svg>
